…
  tidy_fit = tidy(fit)
  glance_fit = glance(fit)
  
  tibble(
    r2 = glance_fit$r.squared,
    beta1 = tidy_fit$estimate[tidy_fit$term == "tmin"],
    beta2 = tidy_fit$estimate[tidy_fit$term == "prcp"],
  )
})

boot_results
```

    ## # A tibble: 5,000 × 3
    ##       r2 beta1    beta2
    ##    <dbl> <dbl>    <dbl>
    ##  1 0.940  1.01 -0.00715
    ##  2 0.941  1.02 -0.00411
    ##  3 0.940  1.02 -0.00692
    ##  4 0.943  1.02 -0.00573
    ##  5 0.938  1.01 -0.00709
    ##  6 0.941  1.01 -0.00531
    ##  7 0.942  1.02 -0.00599
    ##  8 0.937  1.01 -0.00819
    ##  9 0.942  1.01 -0.00565
    ## 10 0.940  1.02 -0.00512
    ## # ℹ 4,990 more rows
…
